<?xml version="1.0" encoding="UTF-8" standalone="no"?>
<!-- Created with Inkscape (http://www.inkscape.org/) -->

<svg
   xmlns:dc="http://purl.org/dc/elements/1.1/"
   xmlns:cc="http://creativecommons.org/ns#"
   xmlns:rdf="http://www.w3.org/1999/02/22-rdf-syntax-ns#"
   xmlns:svg="http://www.w3.org/2000/svg"
   xmlns="http://www.w3.org/2000/svg"
   xmlns:xlink="http://www.w3.org/1999/xlink"
   xmlns:sodipodi="http://sodipodi.sourceforge.net/DTD/sodipodi-0.dtd"
   xmlns:inkscape="http://www.inkscape.org/namespaces/inkscape"
   width="210mm"
   height="297mm"
   viewBox="0 0 210 297"
   version="1.1"
   id="svg8"
   inkscape:version="0.92.4 (unknown)"
   sodipodi:docname="angleOfAtackIndicator.svg">
  <defs
     id="defs2">
    <linearGradient
       inkscape:collect="always"
       id="linearGradient849">
      <stop
         style="stop-color:#000000;stop-opacity:1;"
         offset="0"
         id="stop845" />
      <stop
         style="stop-color:#000000;stop-opacity:0;"
         offset="1"
         id="stop847" />
    </linearGradient>
    <radialGradient
       inkscape:collect="always"
       xlink:href="#linearGradient849"
       id="radialGradient853"
       gradientUnits="userSpaceOnUse"
       gradientTransform="matrix(1.8642163,0.04363837,-0.041174,1.7589388,-55.579425,-51.364986)"
       cx="67.351921"
       cy="63.807335"
       fx="67.351921"
       fy="63.807335"
       r="45.04831" />
  </defs>
  <sodipodi:namedview
     id="base"
     pagecolor="#ffffff"
     bordercolor="#666666"
     borderopacity="1.0"
     inkscape:pageopacity="0.0"
     inkscape:pageshadow="2"
     inkscape:zoom="2.8"
     inkscape:cx="211.90902"
     inkscape:cy="703.06267"
     inkscape:document-units="mm"
     inkscape:current-layer="layer1"
     showgrid="false"
     inkscape:window-width="2105"
     inkscape:window-height="1725"
     inkscape:window-x="0"
     inkscape:window-y="38"
     inkscape:window-maximized="0" />
  <metadata
     id="metadata5">
    <rdf:RDF>
      <cc:Work
         rdf:about="">
        <dc:format>image/svg+xml</dc:format>
        <dc:type
           rdf:resource="http://purl.org/dc/dcmitype/StillImage" />
        <dc:title></dc:title>
      </cc:Work>
    </rdf:RDF>
  </metadata>
  <g
     inkscape:label="Capa 1"
     inkscape:groupmode="layer"
     id="layer1">
    <g
       id="g954"
       transform="translate(0.13363476,-2.80633)"
       inkscape:export-xdpi="183"
       inkscape:export-ydpi="183">
      <circle
         inkscape:export-ydpi="183.24773"
         inkscape:export-xdpi="183.24773"
         r="43.99831"
         cy="63.807335"
         cx="67.351921"
         id="path855"
         style="fill:#1a1a1a;stroke:url(#radialGradient853);stroke-width:2.0999999;stroke-miterlimit:4;stroke-dasharray:none" />
      <path
         inkscape:export-ydpi="183.24773"
         inkscape:export-xdpi="183.24773"
         inkscape:connector-curvature="0"
         id="path919"
         d="M 32.978422,63.807335 H 58.302828"
         style="fill:none;stroke:#ffffff;stroke-width:0.36500001;stroke-linecap:butt;stroke-linejoin:miter;stroke-miterlimit:4;stroke-dasharray:2.19, 2.19;stroke-dashoffset:0;stroke-opacity:1" />
      <path
         inkscape:export-ydpi="183.24773"
         inkscape:export-xdpi="183.24773"
         id="path886"
         transform="scale(0.26458333)"
         d="m 254.55664,87.652344 c -0.31158,0 -0.62049,0.0099 -0.93164,0.01172 l 8.38867,14.544916 c 73.45838,3.86645 131.69141,64.51576 131.69141,138.94922 0,76.9356 -62.21284,139.15625 -139.14844,139.15625 -21.76078,0 -42.34133,-4.97895 -60.67187,-13.85937 l -12.78516,9.49219 c 21.82717,11.93498 46.85748,18.72461 73.45703,18.72461 84.69751,0 153.51367,-68.81617 153.51367,-153.51368 0,-84.69751 -68.81616,-153.505854 -153.51367,-153.505854 z"
         style="color:#000000;font-style:normal;font-variant:normal;font-weight:normal;font-stretch:normal;font-size:medium;line-height:normal;font-family:sans-serif;font-variant-ligatures:normal;font-variant-position:normal;font-variant-caps:normal;font-variant-numeric:normal;font-variant-alternates:normal;font-feature-settings:normal;text-indent:0;text-align:start;text-decoration:none;text-decoration-line:none;text-decoration-style:solid;text-decoration-color:#000000;letter-spacing:normal;word-spacing:normal;text-transform:none;writing-mode:lr-tb;direction:ltr;text-orientation:mixed;dominant-baseline:auto;baseline-shift:baseline;text-anchor:start;white-space:normal;shape-padding:0;clip-rule:nonzero;display:inline;overflow:visible;visibility:visible;opacity:1;isolation:auto;mix-blend-mode:normal;color-interpolation:sRGB;color-interpolation-filters:linearRGB;solid-color:#000000;solid-opacity:1;vector-effect:none;fill:#4d4d4d;fill-opacity:1;fill-rule:nonzero;stroke:none;stroke-width:14.36220455;stroke-linecap:butt;stroke-linejoin:miter;stroke-miterlimit:4;stroke-dasharray:none;stroke-dashoffset:0;stroke-opacity:1;color-rendering:auto;image-rendering:auto;shape-rendering:auto;text-rendering:auto;enable-background:accumulate"
         inkscape:connector-curvature="0" />
      <path
         inkscape:export-ydpi="183.24773"
         inkscape:export-xdpi="183.24773"
         id="path884"
         transform="scale(0.26458333)"
         d="m 249.46094,87.746094 c -7.36334,0.24104 -14.59852,0.996563 -21.66602,2.242187 l 9.75391,13.054689 c 5.57459,-0.6774 11.24828,-1.0332 17.00781,-1.0332 1.05389,0 2.1041,0.0178 3.15234,0.041 z"
         style="color:#000000;font-style:normal;font-variant:normal;font-weight:normal;font-stretch:normal;font-size:medium;line-height:normal;font-family:sans-serif;font-variant-ligatures:normal;font-variant-position:normal;font-variant-caps:normal;font-variant-numeric:normal;font-variant-alternates:normal;font-feature-settings:normal;text-indent:0;text-align:start;text-decoration:none;text-decoration-line:none;text-decoration-style:solid;text-decoration-color:#000000;letter-spacing:normal;word-spacing:normal;text-transform:none;writing-mode:lr-tb;direction:ltr;text-orientation:mixed;dominant-baseline:auto;baseline-shift:baseline;text-anchor:start;white-space:normal;shape-padding:0;clip-rule:nonzero;display:inline;overflow:visible;visibility:visible;opacity:1;isolation:auto;mix-blend-mode:normal;color-interpolation:sRGB;color-interpolation-filters:linearRGB;solid-color:#000000;solid-opacity:1;vector-effect:none;fill:#ff0000;fill-opacity:1;fill-rule:nonzero;stroke:none;stroke-width:14.36220455;stroke-linecap:butt;stroke-linejoin:miter;stroke-miterlimit:4;stroke-dasharray:none;stroke-dashoffset:0;stroke-opacity:1;color-rendering:auto;image-rendering:auto;shape-rendering:auto;text-rendering:auto;enable-background:accumulate"
         inkscape:connector-curvature="0" />
      <path
         inkscape:export-ydpi="183.24773"
         inkscape:export-xdpi="183.24773"
         id="path882"
         transform="scale(0.26458333)"
         d="m 223.80078,90.744141 c -48.09255,9.803569 -88.0425,42.139709 -108.33984,85.472659 l 13.69336,4.5 c 19.54473,-40.53875 58.15775,-70.10522 104.2539,-77.11328 z"
         style="color:#000000;font-style:normal;font-variant:normal;font-weight:normal;font-stretch:normal;font-size:medium;line-height:normal;font-family:sans-serif;font-variant-ligatures:normal;font-variant-position:normal;font-variant-caps:normal;font-variant-numeric:normal;font-variant-alternates:normal;font-feature-settings:normal;text-indent:0;text-align:start;text-decoration:none;text-decoration-line:none;text-decoration-style:solid;text-decoration-color:#000000;letter-spacing:normal;word-spacing:normal;text-transform:none;writing-mode:lr-tb;direction:ltr;text-orientation:mixed;dominant-baseline:auto;baseline-shift:baseline;text-anchor:start;white-space:normal;shape-padding:0;clip-rule:nonzero;display:inline;overflow:visible;visibility:visible;opacity:1;isolation:auto;mix-blend-mode:normal;color-interpolation:sRGB;color-interpolation-filters:linearRGB;solid-color:#000000;solid-opacity:1;vector-effect:none;fill:#ffff00;fill-opacity:1;fill-rule:nonzero;stroke:none;stroke-width:14.36220455;stroke-linecap:butt;stroke-linejoin:miter;stroke-miterlimit:4;stroke-dasharray:none;stroke-dashoffset:0;stroke-opacity:1;color-rendering:auto;image-rendering:auto;shape-rendering:auto;text-rendering:auto;enable-background:accumulate"
         inkscape:connector-curvature="0" />
      <path
         inkscape:export-ydpi="183.24773"
         inkscape:export-xdpi="183.24773"
         transform="scale(0.26458333)"
         id="path880"
         d="m 113.94531,179.55469 c -8.28978,18.86365 -12.90234,39.69908 -12.90234,61.60351 0,26.22818 6.60612,50.93064 18.23242,72.54102 l 14.08203,-4.07617 C 121.93298,289.41557 115.4082,266.05949 115.4082,241.1582 c 0,-20.36333 4.36111,-39.69333 12.19727,-57.11328 z"
         style="color:#000000;font-style:normal;font-variant:normal;font-weight:normal;font-stretch:normal;font-size:medium;line-height:normal;font-family:sans-serif;font-variant-ligatures:normal;font-variant-position:normal;font-variant-caps:normal;font-variant-numeric:normal;font-variant-alternates:normal;font-feature-settings:normal;text-indent:0;text-align:start;text-decoration:none;text-decoration-line:none;text-decoration-style:solid;text-decoration-color:#000000;letter-spacing:normal;word-spacing:normal;text-transform:none;writing-mode:lr-tb;direction:ltr;text-orientation:mixed;dominant-baseline:auto;baseline-shift:baseline;text-anchor:start;white-space:normal;shape-padding:0;clip-rule:nonzero;display:inline;overflow:visible;visibility:visible;opacity:1;isolation:auto;mix-blend-mode:normal;color-interpolation:sRGB;color-interpolation-filters:linearRGB;solid-color:#000000;solid-opacity:1;vector-effect:none;fill:#008000;fill-opacity:1;fill-rule:nonzero;stroke:none;stroke-width:14.36220455;stroke-linecap:butt;stroke-linejoin:miter;stroke-miterlimit:4;stroke-dasharray:none;stroke-dashoffset:0;stroke-opacity:1;color-rendering:auto;image-rendering:auto;shape-rendering:auto;text-rendering:auto;enable-background:accumulate"
         inkscape:connector-curvature="0" />
      <path
         inkscape:export-ydpi="183.24773"
         inkscape:export-xdpi="183.24773"
         id="path868"
         transform="scale(0.26458333)"
         d="m 135.24805,312.87109 -14.16211,4.09961 c 13.46791,23.63355 33.03006,43.35306 56.53906,57.01368 l 12.61719,-9.36719 c -22.75706,-11.86471 -41.80971,-29.83155 -54.99414,-51.7461 z"
         style="color:#000000;font-style:normal;font-variant:normal;font-weight:normal;font-stretch:normal;font-size:medium;line-height:normal;font-family:sans-serif;font-variant-ligatures:normal;font-variant-position:normal;font-variant-caps:normal;font-variant-numeric:normal;font-variant-alternates:normal;font-feature-settings:normal;text-indent:0;text-align:start;text-decoration:none;text-decoration-line:none;text-decoration-style:solid;text-decoration-color:#000000;letter-spacing:normal;word-spacing:normal;text-transform:none;writing-mode:lr-tb;direction:ltr;text-orientation:mixed;dominant-baseline:auto;baseline-shift:baseline;text-anchor:start;white-space:normal;shape-padding:0;clip-rule:nonzero;display:inline;overflow:visible;visibility:visible;opacity:1;isolation:auto;mix-blend-mode:normal;color-interpolation:sRGB;color-interpolation-filters:linearRGB;solid-color:#000000;solid-opacity:1;vector-effect:none;fill:#008000;fill-opacity:1;fill-rule:nonzero;stroke:none;stroke-width:14.36220455;stroke-linecap:butt;stroke-linejoin:miter;stroke-miterlimit:4;stroke-dasharray:none;stroke-dashoffset:0;stroke-opacity:1;color-rendering:auto;image-rendering:auto;shape-rendering:auto;text-rendering:auto;enable-background:accumulate"
         inkscape:connector-curvature="0" />
      <path
         inkscape:export-ydpi="183.24773"
         inkscape:export-xdpi="183.24773"
         inkscape:connector-curvature="0"
         id="path921"
         d="m 34.08683,54.304832 3.093749,0.768162"
         style="fill:none;stroke:#ffffff;stroke-width:0.36500001;stroke-linecap:butt;stroke-linejoin:miter;stroke-miterlimit:4;stroke-dasharray:none;stroke-opacity:1" />
      <path
         inkscape:export-ydpi="183.24773"
         inkscape:export-xdpi="183.24773"
         style="fill:none;stroke:#ffffff;stroke-width:0.36500001;stroke-linecap:butt;stroke-linejoin:miter;stroke-miterlimit:4;stroke-dasharray:none;stroke-opacity:1"
         d="m 34.559752,73.568368 3.083349,-0.808896"
         id="path923"
         inkscape:connector-curvature="0" />
      <path
         inkscape:export-ydpi="183.24773"
         inkscape:export-xdpi="183.24773"
         inkscape:connector-curvature="0"
         id="path925"
         d="M 34.172075,47.672909 77.390624,62.229535"
         style="fill:none;stroke:#ffff00;stroke-width:0.26458332px;stroke-linecap:butt;stroke-linejoin:miter;stroke-opacity:1" />
      <path
         inkscape:export-ydpi="183.24773"
         inkscape:export-xdpi="183.24773"
         style="fill:none;stroke:#008000;stroke-width:0.28227687px;stroke-linecap:butt;stroke-linejoin:miter;stroke-opacity:1"
         d="M 35.784379,82.910407 76.985882,65.119028"
         id="path927"
         inkscape:connector-curvature="0" />
    </g>
    <g
       id="g941"
       transform="translate(11.49259,9.0871638)"
       inkscape:export-xdpi="183"
       inkscape:export-ydpi="183">
      <path
         inkscape:transform-center-y="-0.60920337"
         inkscape:transform-center-x="6.1104081"
         sodipodi:nodetypes="ccssc"
         inkscape:connector-curvature="0"
         id="path844"
         d="m 100.09782,129.50027 c 0,0 -54.012384,1.50103 -59.976733,1.17677 0,0 -4.828955,-0.55603 -4.595346,-2.91185 0.233602,-2.3558 6.807593,-3.78942 9.531399,-3.96673 18.289237,-1.1906 55.04068,5.70181 55.04068,5.70181 z"
         style="fill:#f2f2f2;stroke:#ffffff;stroke-width:0.25419587px;stroke-linecap:butt;stroke-linejoin:miter;stroke-opacity:1" />
      <circle
         transform="rotate(4.2123265)"
         r="0.22442333"
         cy="122.20377"
         cx="83.12925"
         id="path917"
         style="fill:#ffffff;stroke:none;stroke-width:0.12388512;stroke-miterlimit:4;stroke-dasharray:none" />
    </g>
    <rect
       style="fill:#ffffff;stroke:none;stroke-width:0.36500001;stroke-miterlimit:4;stroke-dasharray:none;stroke-dashoffset:0"
       id="rect980"
       width="38.506401"
       height="6.4728417"
       x="46.869045"
       y="132.0134" />
  </g>
</svg>
